[{
    "SocialLinks":
            [
              {
                "ClassName": "envelope",
                "Action": "#"
              },
              {
                "ClassName": "question-circle",
                "Action": "#"
              },
              {
                "ClassName": "comment",
                "Action": "#"
              },

              {
                "ClassName": "map-marker",
                "Action": "#"
              }
            ]
  }
]