[
	{
		"title": "SUMMARY",
		"initialVisibility": "false",
		"link": "#/summary",
		"permissions": ["ADMIN", "GUEST"]
	},
	{
		"title": "@HOME",
		"initialVisibility": "false",
		"link": "#/home/1",
		"permissions": ["ADMIN", "GUEST"]
	},
	{
		"title": "@WORK",
		"initialVisibility": "false",
		"childMenuItems": [
			{
				"title": "Berrisoft",
				"link": ""
			},
			{
				"title": "CAD Library",
				"link": ""
			},
			{
				"title": "Ecodial Desktop",
				"link": ""
			}
		],
		"permissions": ["ADMIN", "GUEST"]
	},
	{
		"title": "EXT.BIZ REPORTS",
		"initialVisibility": "false",
		"link": "",
		"permissions": ["ADMIN", "GUEST"]
	},
	{
		"title": "CUST. CARE CENTER",
		"initialVisibility": "false",
		"link": "",
		"permissions": ["ADMIN", "GUEST"]
	},
	{
		"title": "ADMIN",
		"initialVisibility": "false",
		"link": "",
		"permissions": ["ADMIN", "GUEST"]
	},
	{
		"title": "OTHERS",
		"initialVisibility": "false",
		"link": "",
		"permissions": ["ADMIN", "GUEST"]
	}
]
