[
  {
    "name": "OUR SITE",
    "link": "http://www.schneider-electric.com"
  },
  {
    "name": "SUPPORT",
    "link": "http://www.schneider-electric.com/support"
  },
  {
    "name": "PARTNER",
    "link": "http://partners.schneider-electric.us/en/"
  }
]