[{
    "projName": "NOT_LISTED",
    "month": [{
        "date": "2013-12-31T18:30:00.000Z",
        "dateFormatted": "2014-01-01",
        "users": 0
      }, {
        "date": "2014-01-31T18:30:00.000Z",
        "dateFormatted": "2014-02-01",
        "users": 0
      }, {
        "date": "2014-02-28T18:30:00.000Z",
        "dateFormatted": "2014-03-01",
        "users": 0
      }, {
        "date": "2014-03-31T18:30:00.000Z",
        "dateFormatted": "2014-04-01",
        "users": 0
      }, {
        "date": "2014-04-30T18:30:00.000Z",
        "dateFormatted": "2014-05-01",
        "users": 0
      }, {
        "date": "2014-05-31T18:30:00.000Z",
        "dateFormatted": "2014-06-01",
        "users": 0
      }, {
        "date": "2014-06-30T18:30:00.000Z",
        "dateFormatted": "2014-07-01",
        "users": 0
      }, {
        "date": "2014-07-31T18:30:00.000Z",
        "dateFormatted": "2014-08-01",
        "users": 0
      }, {
        "date": "2014-08-31T18:30:00.000Z",
        "dateFormatted": "2014-09-01",
        "users": 0
      }, {
        "date": "2014-09-30T18:30:00.000Z",
        "dateFormatted": "2014-10-01",
        "users": 1265
      }, {
        "date": "2014-10-31T18:30:00.000Z",
        "dateFormatted": "2014-11-01",
        "users": 128
      }, {
        "date": "2014-11-30T18:30:00.000Z",
        "dateFormatted": "2014-12-01",
        "users": 126
      }]
  }, {
    "projName": "QUICK_QUOTATION_630_SPAIN",
    "month": [{
        "date": "2013-12-31T18:30:00.000Z",
        "dateFormatted": "2014-01-01",
        "users": 0
      }, {
        "date": "2014-01-31T18:30:00.000Z",
        "dateFormatted": "2014-02-01",
        "users": 0
      }, {
        "date": "2014-02-28T18:30:00.000Z",
        "dateFormatted": "2014-03-01",
        "users": 0
      }, {
        "date": "2014-03-31T18:30:00.000Z",
        "dateFormatted": "2014-04-01",
        "users": 0
      }, {
        "date": "2014-04-30T18:30:00.000Z",
        "dateFormatted": "2014-05-01",
        "users": 0
      }, {
        "date": "2014-05-31T18:30:00.000Z",
        "dateFormatted": "2014-06-01",
        "users": 0
      }, {
        "date": "2014-06-30T18:30:00.000Z",
        "dateFormatted": "2014-07-01",
        "users": 0
      }, {
        "date": "2014-07-31T18:30:00.000Z",
        "dateFormatted": "2014-08-01",
        "users": 0
      }, {
        "date": "2014-08-31T18:30:00.000Z",
        "dateFormatted": "2014-09-01",
        "users": 0
      }, {
        "date": "2014-09-30T18:30:00.000Z",
        "dateFormatted": "2014-10-01",
        "users": 0
      }, {
        "date": "2014-10-31T18:30:00.000Z",
        "dateFormatted": "2014-11-01",
        "users": 69
      }, {
        "date": "2014-11-30T18:30:00.000Z",
        "dateFormatted": "2014-12-01",
        "users": 63
      }]
  }, {
    "projName": "QUICK_QUOTATION_630_RUSSIA",
    "month": [{
        "date": "2013-12-31T18:30:00.000Z",
        "dateFormatted": "2014-01-01",
        "users": 0
      }, {
        "date": "2014-01-31T18:30:00.000Z",
        "dateFormatted": "2014-02-01",
        "users": 0
      }, {
        "date": "2014-02-28T18:30:00.000Z",
        "dateFormatted": "2014-03-01",
        "users": 0
      }, {
        "date": "2014-03-31T18:30:00.000Z",
        "dateFormatted": "2014-04-01",
        "users": 0
      }, {
        "date": "2014-04-30T18:30:00.000Z",
        "dateFormatted": "2014-05-01",
        "users": 0
      }, {
        "date": "2014-05-31T18:30:00.000Z",
        "dateFormatted": "2014-06-01",
        "users": 0
      }, {
        "date": "2014-06-30T18:30:00.000Z",
        "dateFormatted": "2014-07-01",
        "users": 0
      }, {
        "date": "2014-07-31T18:30:00.000Z",
        "dateFormatted": "2014-08-01",
        "users": 0
      }, {
        "date": "2014-08-31T18:30:00.000Z",
        "dateFormatted": "2014-09-01",
        "users": 0
      }, {
        "date": "2014-09-30T18:30:00.000Z",
        "dateFormatted": "2014-10-01",
        "users": 0
      }, {
        "date": "2014-10-31T18:30:00.000Z",
        "dateFormatted": "2014-11-01",
        "users": 51
      }, {
        "date": "2014-11-30T18:30:00.000Z",
        "dateFormatted": "2014-12-01",
        "users": 36
      }]
  }, {
    "projName": "BLM",
    "month": [{
        "date": "2013-12-31T18:30:00.000Z",
        "dateFormatted": "2014-01-01",
        "users": 0
      }, {
        "date": "2014-01-31T18:30:00.000Z",
        "dateFormatted": "2014-02-01",
        "users": 0
      }, {
        "date": "2014-02-28T18:30:00.000Z",
        "dateFormatted": "2014-03-01",
        "users": 0
      }, {
        "date": "2014-03-31T18:30:00.000Z",
        "dateFormatted": "2014-04-01",
        "users": 0
      }, {
        "date": "2014-04-30T18:30:00.000Z",
        "dateFormatted": "2014-05-01",
        "users": 0
      }, {
        "date": "2014-05-31T18:30:00.000Z",
        "dateFormatted": "2014-06-01",
        "users": 0
      }, {
        "date": "2014-06-30T18:30:00.000Z",
        "dateFormatted": "2014-07-01",
        "users": 0
      }, {
        "date": "2014-07-31T18:30:00.000Z",
        "dateFormatted": "2014-08-01",
        "users": 0
      }, {
        "date": "2014-08-31T18:30:00.000Z",
        "dateFormatted": "2014-09-01",
        "users": 0
      }, {
        "date": "2014-09-30T18:30:00.000Z",
        "dateFormatted": "2014-10-01",
        "users": 0
      }, {
        "date": "2014-10-31T18:30:00.000Z",
        "dateFormatted": "2014-11-01",
        "users": 0
      }, {
        "date": "2014-11-30T18:30:00.000Z",
        "dateFormatted": "2014-12-01",
        "users": 5
      }]
  }, {
    "projName": "MY_PACT",
    "month": [{
        "date": "2013-12-31T18:30:00.000Z",
        "dateFormatted": "2014-01-01",
        "users": 0
      }, {
        "date": "2014-01-31T18:30:00.000Z",
        "dateFormatted": "2014-02-01",
        "users": 0
      }, {
        "date": "2014-02-28T18:30:00.000Z",
        "dateFormatted": "2014-03-01",
        "users": 0
      }, {
        "date": "2014-03-31T18:30:00.000Z",
        "dateFormatted": "2014-04-01",
        "users": 0
      }, {
        "date": "2014-04-30T18:30:00.000Z",
        "dateFormatted": "2014-05-01",
        "users": 0
      }, {
        "date": "2014-05-31T18:30:00.000Z",
        "dateFormatted": "2014-06-01",
        "users": 0
      }, {
        "date": "2014-06-30T18:30:00.000Z",
        "dateFormatted": "2014-07-01",
        "users": 0
      }, {
        "date": "2014-07-31T18:30:00.000Z",
        "dateFormatted": "2014-08-01",
        "users": 0
      }, {
        "date": "2014-08-31T18:30:00.000Z",
        "dateFormatted": "2014-09-01",
        "users": 0
      }, {
        "date": "2014-09-30T18:30:00.000Z",
        "dateFormatted": "2014-10-01",
        "users": 0
      }, {
        "date": "2014-10-31T18:30:00.000Z",
        "dateFormatted": "2014-11-01",
        "users": 0
      }, {
        "date": "2014-11-30T18:30:00.000Z",
        "dateFormatted": "2014-12-01",
        "users": 61
      }]
  }, {
    "projName": "CBT",
    "month": [{
        "date": "2013-12-31T18:30:00.000Z",
        "dateFormatted": "2014-01-01",
        "users": 0
      }, {
        "date": "2014-01-31T18:30:00.000Z",
        "dateFormatted": "2014-02-01",
        "users": 0
      }, {
        "date": "2014-02-28T18:30:00.000Z",
        "dateFormatted": "2014-03-01",
        "users": 0
      }, {
        "date": "2014-03-31T18:30:00.000Z",
        "dateFormatted": "2014-04-01",
        "users": 0
      }, {
        "date": "2014-04-30T18:30:00.000Z",
        "dateFormatted": "2014-05-01",
        "users": 0
      }, {
        "date": "2014-05-31T18:30:00.000Z",
        "dateFormatted": "2014-06-01",
        "users": 0
      }, {
        "date": "2014-06-30T18:30:00.000Z",
        "dateFormatted": "2014-07-01",
        "users": 0
      }, {
        "date": "2014-07-31T18:30:00.000Z",
        "dateFormatted": "2014-08-01",
        "users": 0
      }, {
        "date": "2014-08-31T18:30:00.000Z",
        "dateFormatted": "2014-09-01",
        "users": 0
      }, {
        "date": "2014-09-30T18:30:00.000Z",
        "dateFormatted": "2014-10-01",
        "users": 0
      }, {
        "date": "2014-10-31T18:30:00.000Z",
        "dateFormatted": "2014-11-01",
        "users": 0
      }, {
        "date": "2014-11-30T18:30:00.000Z",
        "dateFormatted": "2014-12-01",
        "users": 0
      }]
  }, {
    "projName": "ECO_DIAL_DESKTOP",
    "month": [{
        "date": "2013-12-31T18:30:00.000Z",
        "dateFormatted": "2014-01-01",
        "users": 0
      }, {
        "date": "2014-01-31T18:30:00.000Z",
        "dateFormatted": "2014-02-01",
        "users": 0
      }, {
        "date": "2014-02-28T18:30:00.000Z",
        "dateFormatted": "2014-03-01",
        "users": 0
      }, {
        "date": "2014-03-31T18:30:00.000Z",
        "dateFormatted": "2014-04-01",
        "users": 0
      }, {
        "date": "2014-04-30T18:30:00.000Z",
        "dateFormatted": "2014-05-01",
        "users": 0
      }, {
        "date": "2014-05-31T18:30:00.000Z",
        "dateFormatted": "2014-06-01",
        "users": 0
      }, {
        "date": "2014-06-30T18:30:00.000Z",
        "dateFormatted": "2014-07-01",
        "users": 0
      }, {
        "date": "2014-07-31T18:30:00.000Z",
        "dateFormatted": "2014-08-01",
        "users": 0
      }, {
        "date": "2014-08-31T18:30:00.000Z",
        "dateFormatted": "2014-09-01",
        "users": 0
      }, {
        "date": "2014-09-30T18:30:00.000Z",
        "dateFormatted": "2014-10-01",
        "users": 0
      }, {
        "date": "2014-10-31T18:30:00.000Z",
        "dateFormatted": "2014-11-01",
        "users": 0
      }, {
        "date": "2014-11-30T18:30:00.000Z",
        "dateFormatted": "2014-12-01",
        "users": 0
      }]
  }, {
    "projName": "RAPSODY",
    "month": [{
        "date": "2013-12-31T18:30:00.000Z",
        "dateFormatted": "2014-01-01",
        "users": 0
      }, {
        "date": "2014-01-31T18:30:00.000Z",
        "dateFormatted": "2014-02-01",
        "users": 0
      }, {
        "date": "2014-02-28T18:30:00.000Z",
        "dateFormatted": "2014-03-01",
        "users": 0
      }, {
        "date": "2014-03-31T18:30:00.000Z",
        "dateFormatted": "2014-04-01",
        "users": 0
      }, {
        "date": "2014-04-30T18:30:00.000Z",
        "dateFormatted": "2014-05-01",
        "users": 0
      }, {
        "date": "2014-05-31T18:30:00.000Z",
        "dateFormatted": "2014-06-01",
        "users": 0
      }, {
        "date": "2014-06-30T18:30:00.000Z",
        "dateFormatted": "2014-07-01",
        "users": 0
      }, {
        "date": "2014-07-31T18:30:00.000Z",
        "dateFormatted": "2014-08-01",
        "users": 0
      }, {
        "date": "2014-08-31T18:30:00.000Z",
        "dateFormatted": "2014-09-01",
        "users": 0
      }, {
        "date": "2014-09-30T18:30:00.000Z",
        "dateFormatted": "2014-10-01",
        "users": 0
      }, {
        "date": "2014-10-31T18:30:00.000Z",
        "dateFormatted": "2014-11-01",
        "users": 0
      }, {
        "date": "2014-11-30T18:30:00.000Z",
        "dateFormatted": "2014-12-01",
        "users": 0
      }]
  }, {
    "projName": "CAD_LIBRARY",
    "month": [{
        "date": "2013-12-31T18:30:00.000Z",
        "dateFormatted": "2014-01-01",
        "users": 0
      }, {
        "date": "2014-01-31T18:30:00.000Z",
        "dateFormatted": "2014-02-01",
        "users": 0
      }, {
        "date": "2014-02-28T18:30:00.000Z",
        "dateFormatted": "2014-03-01",
        "users": 0
      }, {
        "date": "2014-03-31T18:30:00.000Z",
        "dateFormatted": "2014-04-01",
        "users": 0
      }, {
        "date": "2014-04-30T18:30:00.000Z",
        "dateFormatted": "2014-05-01",
        "users": 0
      }, {
        "date": "2014-05-31T18:30:00.000Z",
        "dateFormatted": "2014-06-01",
        "users": 0
      }, {
        "date": "2014-06-30T18:30:00.000Z",
        "dateFormatted": "2014-07-01",
        "users": 0
      }, {
        "date": "2014-07-31T18:30:00.000Z",
        "dateFormatted": "2014-08-01",
        "users": 0
      }, {
        "date": "2014-08-31T18:30:00.000Z",
        "dateFormatted": "2014-09-01",
        "users": 0
      }, {
        "date": "2014-09-30T18:30:00.000Z",
        "dateFormatted": "2014-10-01",
        "users": 0
      }, {
        "date": "2014-10-31T18:30:00.000Z",
        "dateFormatted": "2014-11-01",
        "users": 0
      }, {
        "date": "2014-11-30T18:30:00.000Z",
        "dateFormatted": "2014-12-01",
        "users": 0
      }]
  }, {
    "projName": "ECO_DIAL_CHINA",
    "month": [{
        "date": "2013-12-31T18:30:00.000Z",
        "dateFormatted": "2014-01-01",
        "users": 0
      }, {
        "date": "2014-01-31T18:30:00.000Z",
        "dateFormatted": "2014-02-01",
        "users": 0
      }, {
        "date": "2014-02-28T18:30:00.000Z",
        "dateFormatted": "2014-03-01",
        "users": 0
      }, {
        "date": "2014-03-31T18:30:00.000Z",
        "dateFormatted": "2014-04-01",
        "users": 0
      }, {
        "date": "2014-04-30T18:30:00.000Z",
        "dateFormatted": "2014-05-01",
        "users": 0
      }, {
        "date": "2014-05-31T18:30:00.000Z",
        "dateFormatted": "2014-06-01",
        "users": 0
      }, {
        "date": "2014-06-30T18:30:00.000Z",
        "dateFormatted": "2014-07-01",
        "users": 0
      }, {
        "date": "2014-07-31T18:30:00.000Z",
        "dateFormatted": "2014-08-01",
        "users": 0
      }, {
        "date": "2014-08-31T18:30:00.000Z",
        "dateFormatted": "2014-09-01",
        "users": 0
      }, {
        "date": "2014-09-30T18:30:00.000Z",
        "dateFormatted": "2014-10-01",
        "users": 0
      }, {
        "date": "2014-10-31T18:30:00.000Z",
        "dateFormatted": "2014-11-01",
        "users": 0
      }, {
        "date": "2014-11-30T18:30:00.000Z",
        "dateFormatted": "2014-12-01",
        "users": 0
      }]
  }, {
    "projName": "ECO_DIAL_AUTOCAD_PLUGIN",
    "month": [{
        "date": "2013-12-31T18:30:00.000Z",
        "dateFormatted": "2014-01-01",
        "users": 0
      }, {
        "date": "2014-01-31T18:30:00.000Z",
        "dateFormatted": "2014-02-01",
        "users": 0
      }, {
        "date": "2014-02-28T18:30:00.000Z",
        "dateFormatted": "2014-03-01",
        "users": 0
      }, {
        "date": "2014-03-31T18:30:00.000Z",
        "dateFormatted": "2014-04-01",
        "users": 0
      }, {
        "date": "2014-04-30T18:30:00.000Z",
        "dateFormatted": "2014-05-01",
        "users": 0
      }, {
        "date": "2014-05-31T18:30:00.000Z",
        "dateFormatted": "2014-06-01",
        "users": 0
      }, {
        "date": "2014-06-30T18:30:00.000Z",
        "dateFormatted": "2014-07-01",
        "users": 0
      }, {
        "date": "2014-07-31T18:30:00.000Z",
        "dateFormatted": "2014-08-01",
        "users": 0
      }, {
        "date": "2014-08-31T18:30:00.000Z",
        "dateFormatted": "2014-09-01",
        "users": 0
      }, {
        "date": "2014-09-30T18:30:00.000Z",
        "dateFormatted": "2014-10-01",
        "users": 0
      }, {
        "date": "2014-10-31T18:30:00.000Z",
        "dateFormatted": "2014-11-01",
        "users": 0
      }, {
        "date": "2014-11-30T18:30:00.000Z",
        "dateFormatted": "2014-12-01",
        "users": 0
      }]
  }, {
    "projName": "SMART_SELECTORS",
    "month": [{
        "date": "2013-12-31T18:30:00.000Z",
        "dateFormatted": "2014-01-01",
        "users": 0
      }, {
        "date": "2014-01-31T18:30:00.000Z",
        "dateFormatted": "2014-02-01",
        "users": 0
      }, {
        "date": "2014-02-28T18:30:00.000Z",
        "dateFormatted": "2014-03-01",
        "users": 0
      }, {
        "date": "2014-03-31T18:30:00.000Z",
        "dateFormatted": "2014-04-01",
        "users": 0
      }, {
        "date": "2014-04-30T18:30:00.000Z",
        "dateFormatted": "2014-05-01",
        "users": 0
      }, {
        "date": "2014-05-31T18:30:00.000Z",
        "dateFormatted": "2014-06-01",
        "users": 0
      }, {
        "date": "2014-06-30T18:30:00.000Z",
        "dateFormatted": "2014-07-01",
        "users": 0
      }, {
        "date": "2014-07-31T18:30:00.000Z",
        "dateFormatted": "2014-08-01",
        "users": 0
      }, {
        "date": "2014-08-31T18:30:00.000Z",
        "dateFormatted": "2014-09-01",
        "users": 0
      }, {
        "date": "2014-09-30T18:30:00.000Z",
        "dateFormatted": "2014-10-01",
        "users": 0
      }, {
        "date": "2014-10-31T18:30:00.000Z",
        "dateFormatted": "2014-11-01",
        "users": 0
      }, {
        "date": "2014-11-30T18:30:00.000Z",
        "dateFormatted": "2014-12-01",
        "users": 0
      }]
  }, {
    "projName": "BERRI_SOFT",
    "month": [{
        "date": "2013-12-31T18:30:00.000Z",
        "dateFormatted": "2014-01-01",
        "users": 0
      }, {
        "date": "2014-01-31T18:30:00.000Z",
        "dateFormatted": "2014-02-01",
        "users": 0
      }, {
        "date": "2014-02-28T18:30:00.000Z",
        "dateFormatted": "2014-03-01",
        "users": 0
      }, {
        "date": "2014-03-31T18:30:00.000Z",
        "dateFormatted": "2014-04-01",
        "users": 0
      }, {
        "date": "2014-04-30T18:30:00.000Z",
        "dateFormatted": "2014-05-01",
        "users": 0
      }, {
        "date": "2014-05-31T18:30:00.000Z",
        "dateFormatted": "2014-06-01",
        "users": 0
      }, {
        "date": "2014-06-30T18:30:00.000Z",
        "dateFormatted": "2014-07-01",
        "users": 0
      }, {
        "date": "2014-07-31T18:30:00.000Z",
        "dateFormatted": "2014-08-01",
        "users": 0
      }, {
        "date": "2014-08-31T18:30:00.000Z",
        "dateFormatted": "2014-09-01",
        "users": 0
      }, {
        "date": "2014-09-30T18:30:00.000Z",
        "dateFormatted": "2014-10-01",
        "users": 0
      }, {
        "date": "2014-10-31T18:30:00.000Z",
        "dateFormatted": "2014-11-01",
        "users": 0
      }, {
        "date": "2014-11-30T18:30:00.000Z",
        "dateFormatted": "2014-12-01",
        "users": 0
      }]
  }]