[
  {
    "MONTH": "Jan-16",
    "TOT_DOWNLOADS": 55
  },
  {
    "MONTH": "Feb-16",
    "TOT_DOWNLOADS": 49
  },
  {
    "MONTH": "Mar-16",
    "TOT_DOWNLOADS": 43
  },
  {
    "MONTH": "Apr-16",
    "TOT_DOWNLOADS": 16
  },
  {
    "MONTH": "May-16",
    "TOT_DOWNLOADS": 16
  },
  {
    "MONTH": "June-16",
    "TOT_DOWNLOADS": 14
  },
  {
    "MONTH": "July-16",
    "TOT_DOWNLOADS": 13
  },
  {
    "MONTH": "Aug-16",
    "TOT_DOWNLOADS": 10
  },
  {
    "MONTH": "Sept-16",
    "TOT_DOWNLOADS": 6
  },
  {
    "MONTH": "Oct-16",
    "TOT_DOWNLOADS": 6
  },
  {
    "MONTH": "Nov-16",
    "TOT_DOWNLOADS": 5
  },
  {
    "MONTH": "Dec-16",
    "TOT_DOWNLOADS": 4
  }
]