{
  "Spain": {
    "uniqueActiveUsers": {
      "query": {
        "start-date": "365daysAgo",
        "end-date": "yesterday",
        "ids": "ga:84293563",
        "metrics": ["ga:users"],
        "start-index": 1,
        "max-results": 1000
      },
      "totalsForAllResults": {
        "ga:users": "2925"
      },
      "rows": [["2925"]]
    },
    "productsAdded": {
      "query": {
        "start-date": "2014-09-23",
        "end-date": "yesterday",
        "ids": "ga:84293563",
        "dimensions": "ga:eventAction",
        "metrics": ["ga:totalEvents", "ga:uniqueEvents"],
        "filters": "ga:eventAction==Product added",
        "start-index": 1,
        "max-results": 1000
      },
      "totalsForAllResults": {
        "ga:totalEvents": "107645",
        "ga:uniqueEvents": "4631"
      },
      "rows": [["Product added", "107645", "4631"]]
    },
    "projectCreated": {
      "query": {
        "start-date": "2014-09-23",
        "end-date": "yesterday",
        "ids": "ga:84293563",
        "dimensions": "ga:eventAction",
        "metrics": ["ga:totalEvents", "ga:uniqueEvents"],
        "filters": "ga:eventAction==Project created",
        "start-index": 1,
        "max-results": 1000
      },
      "totalsForAllResults": {
        "ga:totalEvents": "6281",
        "ga:uniqueEvents": "5088"
      },
      "rows": [["Project created", "6281", "5088"]]
    },
    "bomExported": {
      "query": {
        "start-date": "2014-09-23",
        "end-date": "yesterday",
        "ids": "ga:84293563",
        "dimensions": "ga:eventAction",
        "metrics": ["ga:totalEvents", "ga:uniqueEvents", "ga:eventValue"],
        "filters": "ga:eventAction==Bom exported",
        "start-index": 1,
        "max-results": 1000
      },
      "totalsForAllResults": {
        "ga:totalEvents": "667",
        "ga:uniqueEvents": "477",
        "ga:eventValue": "2871936"
      },
      "rows": [["Bom exported", "667", "477", "2871936"]]
    }
  },
  "Russia": {
    "uniqueActiveUsers": {
      "query": {
        "start-date": "365daysAgo",
        "end-date": "yesterday",
        "ids": "ga:89037778",
        "metrics": ["ga:users"],
        "start-index": 1,
        "max-results": 1000
      },
      "totalsForAllResults": {
        "ga:users": "1777"
      },
      "rows": [["1777"]]
    },
    "productsAdded": {
      "query": {
        "start-date": "2014-10-09",
        "end-date": "yesterday",
        "ids": "ga:89037778",
        "dimensions": "ga:eventAction",
        "metrics": ["ga:totalEvents", "ga:uniqueEvents"],
        "filters": "ga:eventAction==Product added",
        "start-index": 1,
        "max-results": 1000
      },
      "totalsForAllResults": {
        "ga:totalEvents": "43804",
        "ga:uniqueEvents": "2577"
      },
      "rows": [["Product added", "43804", "2577"]]
    },
    "projectCreated": {
      "query": {
        "start-date": "2014-10-09",
        "end-date": "yesterday",
        "ids": "ga:89037778",
        "dimensions": "ga:eventAction",
        "metrics": ["ga:totalEvents", "ga:uniqueEvents"],
        "filters": "ga:eventAction==Project created",
        "start-index": 1,
        "max-results": 1000
      },
      "totalsForAllResults": {
        "ga:totalEvents": "3512",
        "ga:uniqueEvents": "2863"
      },
      "rows": [["Project created", "3512", "2863"]]
    },
    "bomExported": {
      "query": {
        "start-date": "2014-10-09",
        "end-date": "yesterday",
        "ids": "ga:89037778",
        "dimensions": "ga:eventAction",
        "metrics": ["ga:totalEvents", "ga:uniqueEvents", "ga:eventValue"],
        "filters": "ga:eventAction==Bom exported",
        "start-index": 1,
        "max-results": 1000
      },
      "totalsForAllResults": {
        "ga:totalEvents": "438",
        "ga:uniqueEvents": "269",
        "ga:eventValue": "25801167"
      },
      "rows": [["Bom exported", "438", "269", "25801167"]]
    }
  }
}