{
  "uniqueActiveUsers": {
    "day": [{
        "dateFormatted": "2015-06-13",
        "uniqueActiveUsers": "3"
      }, {
        "dateFormatted": "2015-06-14",
        "uniqueActiveUsers": "0"
      }, {
        "dateFormatted": "2015-06-15",
        "uniqueActiveUsers": "19"
      }, {
        "dateFormatted": "2015-06-16",
        "uniqueActiveUsers": "14"
      }, {
        "dateFormatted": "2015-06-17",
        "uniqueActiveUsers": "20"
      }, {
        "dateFormatted": "2015-06-18",
        "uniqueActiveUsers": "17"
      }, {
        "dateFormatted": "2015-06-19",
        "uniqueActiveUsers": "9"
      }, {
        "dateFormatted": "2015-06-20",
        "uniqueActiveUsers": "1"
      }, {
        "dateFormatted": "2015-06-21",
        "uniqueActiveUsers": "0"
      }, {
        "dateFormatted": "2015-06-22",
        "uniqueActiveUsers": "9"
      }, {
        "dateFormatted": "2015-06-23",
        "uniqueActiveUsers": "17"
      }, {
        "dateFormatted": "2015-06-24",
        "uniqueActiveUsers": "10"
      }, {
        "dateFormatted": "2015-06-25",
        "uniqueActiveUsers": "10"
      }, {
        "dateFormatted": "2015-06-26",
        "uniqueActiveUsers": "6"
      }, {
        "dateFormatted": "2015-06-27",
        "uniqueActiveUsers": "0"
      }, {
        "dateFormatted": "2015-06-28",
        "uniqueActiveUsers": "0"
      }, {
        "dateFormatted": "2015-06-29",
        "uniqueActiveUsers": "18"
      }, {
        "dateFormatted": "2015-06-30",
        "uniqueActiveUsers": "9"
      }, {
        "dateFormatted": "2015-07-01",
        "uniqueActiveUsers": "11"
      }, {
        "dateFormatted": "2015-07-02",
        "uniqueActiveUsers": "14"
      }, {
        "dateFormatted": "2015-07-03",
        "uniqueActiveUsers": "26"
      }, {
        "dateFormatted": "2015-07-04",
        "uniqueActiveUsers": "0"
      }, {
        "dateFormatted": "2015-07-05",
        "uniqueActiveUsers": "0"
      }, {
        "dateFormatted": "2015-07-06",
        "uniqueActiveUsers": "8"
      }, {
        "dateFormatted": "2015-07-07",
        "uniqueActiveUsers": "8"
      }, {
        "dateFormatted": "2015-07-08",
        "uniqueActiveUsers": "18"
      }, {
        "dateFormatted": "2015-07-09",
        "uniqueActiveUsers": "16"
      }, {
        "dateFormatted": "2015-07-10",
        "uniqueActiveUsers": "7"
      }, {
        "dateFormatted": "2015-07-11",
        "uniqueActiveUsers": "0"
      }, {
        "dateFormatted": "2015-07-12",
        "uniqueActiveUsers": "0"
      }],
    "week": [{
        "dateFormatted": "2015-03",
        "uniqueActiveUsers": "40"
      }, {
        "dateFormatted": "2015-04",
        "uniqueActiveUsers": "37"
      }, {
        "dateFormatted": "2015-05",
        "uniqueActiveUsers": "35"
      }, {
        "dateFormatted": "2015-06",
        "uniqueActiveUsers": "21"
      }, {
        "dateFormatted": "2015-07",
        "uniqueActiveUsers": "0"
      }, {
        "dateFormatted": "2015-08",
        "uniqueActiveUsers": "0"
      }, {
        "dateFormatted": "2015-09",
        "uniqueActiveUsers": "0"
      }, {
        "dateFormatted": "2015-10",
        "uniqueActiveUsers": "0"
      }, {
        "dateFormatted": "2015-11",
        "uniqueActiveUsers": "2"
      }, {
        "dateFormatted": "2015-12",
        "uniqueActiveUsers": "54"
      }, {
        "dateFormatted": "2015-13",
        "uniqueActiveUsers": "33"
      }, {
        "dateFormatted": "2015-14",
        "uniqueActiveUsers": "60"
      }, {
        "dateFormatted": "2015-15",
        "uniqueActiveUsers": "28"
      }, {
        "dateFormatted": "2015-16",
        "uniqueActiveUsers": "58"
      }, {
        "dateFormatted": "2015-17",
        "uniqueActiveUsers": "40"
      }, {
        "dateFormatted": "2015-18",
        "uniqueActiveUsers": "50"
      }, {
        "dateFormatted": "2015-19",
        "uniqueActiveUsers": "37"
      }, {
        "dateFormatted": "2015-20",
        "uniqueActiveUsers": "35"
      }, {
        "dateFormatted": "2015-21",
        "uniqueActiveUsers": "40"
      }, {
        "dateFormatted": "2015-22",
        "uniqueActiveUsers": "46"
      }, {
        "dateFormatted": "2015-23",
        "uniqueActiveUsers": "52"
      }, {
        "dateFormatted": "2015-24",
        "uniqueActiveUsers": "65"
      }, {
        "dateFormatted": "2015-25",
        "uniqueActiveUsers": "71"
      }, {
        "dateFormatted": "2015-26",
        "uniqueActiveUsers": "44"
      }, {
        "dateFormatted": "2015-27",
        "uniqueActiveUsers": "68"
      }, {
        "dateFormatted": "2015-28",
        "uniqueActiveUsers": "45"
      }, {
        "dateFormatted": "2015-29",
        "uniqueActiveUsers": "0"
      }],
    "month": [{
        "dateFormatted": "2014-07-01",
        "uniqueActiveUsers": "0"
      }, {
        "dateFormatted": "2014-08-01",
        "uniqueActiveUsers": "0"
      }, {
        "dateFormatted": "2014-09-01",
        "uniqueActiveUsers": "0"
      }, {
        "dateFormatted": "2014-10-01",
        "uniqueActiveUsers": "0"
      }, {
        "dateFormatted": "2014-11-01",
        "uniqueActiveUsers": "130"
      }, {
        "dateFormatted": "2014-12-01",
        "uniqueActiveUsers": "159"
      }, {
        "dateFormatted": "2015-01-01",
        "uniqueActiveUsers": "131"
      }, {
        "dateFormatted": "2015-02-01",
        "uniqueActiveUsers": "21"
      }, {
        "dateFormatted": "2015-03-01",
        "uniqueActiveUsers": "97"
      }, {
        "dateFormatted": "2015-04-01",
        "uniqueActiveUsers": "177"
      }, {
        "dateFormatted": "2015-05-01",
        "uniqueActiveUsers": "132"
      }, {
        "dateFormatted": "2015-06-01",
        "uniqueActiveUsers": "206"
      }, {
        "dateFormatted": "2015-07-01",
        "uniqueActiveUsers": "83"
      }]
  },
  "configLaunched": {
    "day": [{
        "dateFormatted": "2015-06-13",
        "configLaunched": "4"
      }, {
        "dateFormatted": "2015-06-14",
        "configLaunched": "0"
      }, {
        "dateFormatted": "2015-06-15",
        "configLaunched": "11"
      }, {
        "dateFormatted": "2015-06-16",
        "configLaunched": "13"
      }, {
        "dateFormatted": "2015-06-17",
        "configLaunched": "26"
      }, {
        "dateFormatted": "2015-06-18",
        "configLaunched": "12"
      }, {
        "dateFormatted": "2015-06-19",
        "configLaunched": "28"
      }, {
        "dateFormatted": "2015-06-20",
        "configLaunched": "0"
      }, {
        "dateFormatted": "2015-06-21",
        "configLaunched": "0"
      }, {
        "dateFormatted": "2015-06-22",
        "configLaunched": "1"
      }, {
        "dateFormatted": "2015-06-23",
        "configLaunched": "25"
      }, {
        "dateFormatted": "2015-06-24",
        "configLaunched": "8"
      }, {
        "dateFormatted": "2015-06-25",
        "configLaunched": "5"
      }, {
        "dateFormatted": "2015-06-26",
        "configLaunched": "2"
      }, {
        "dateFormatted": "2015-06-27",
        "configLaunched": "0"
      }, {
        "dateFormatted": "2015-06-28",
        "configLaunched": "0"
      }, {
        "dateFormatted": "2015-06-29",
        "configLaunched": "15"
      }, {
        "dateFormatted": "2015-06-30",
        "configLaunched": "3"
      }, {
        "dateFormatted": "2015-07-01",
        "configLaunched": "5"
      }, {
        "dateFormatted": "2015-07-02",
        "configLaunched": "31"
      }, {
        "dateFormatted": "2015-07-03",
        "configLaunched": "11"
      }, {
        "dateFormatted": "2015-07-04",
        "configLaunched": "0"
      }, {
        "dateFormatted": "2015-07-05",
        "configLaunched": "0"
      }, {
        "dateFormatted": "2015-07-06",
        "configLaunched": "11"
      }, {
        "dateFormatted": "2015-07-07",
        "configLaunched": "7"
      }, {
        "dateFormatted": "2015-07-08",
        "configLaunched": "26"
      }, {
        "dateFormatted": "2015-07-09",
        "configLaunched": "9"
      }, {
        "dateFormatted": "2015-07-10",
        "configLaunched": "6"
      }, {
        "dateFormatted": "2015-07-11",
        "configLaunched": "0"
      }, {
        "dateFormatted": "2015-07-12",
        "configLaunched": "0"
      }],
    "week": [{
        "dateFormatted": "2015-03",
        "configLaunched": "26"
      }, {
        "dateFormatted": "2015-04",
        "configLaunched": "45"
      }, {
        "dateFormatted": "2015-05",
        "configLaunched": "42"
      }, {
        "dateFormatted": "2015-06",
        "configLaunched": "15"
      }, {
        "dateFormatted": "2015-07",
        "configLaunched": "0"
      }, {
        "dateFormatted": "2015-08",
        "configLaunched": "0"
      }, {
        "dateFormatted": "2015-09",
        "configLaunched": "0"
      }, {
        "dateFormatted": "2015-10",
        "configLaunched": "0"
      }, {
        "dateFormatted": "2015-11",
        "configLaunched": "6"
      }, {
        "dateFormatted": "2015-12",
        "configLaunched": "53"
      }, {
        "dateFormatted": "2015-13",
        "configLaunched": "68"
      }, {
        "dateFormatted": "2015-14",
        "configLaunched": "118"
      }, {
        "dateFormatted": "2015-15",
        "configLaunched": "49"
      }, {
        "dateFormatted": "2015-16",
        "configLaunched": "81"
      }, {
        "dateFormatted": "2015-17",
        "configLaunched": "54"
      }, {
        "dateFormatted": "2015-18",
        "configLaunched": "70"
      }, {
        "dateFormatted": "2015-19",
        "configLaunched": "41"
      }, {
        "dateFormatted": "2015-20",
        "configLaunched": "26"
      }, {
        "dateFormatted": "2015-21",
        "configLaunched": "37"
      }, {
        "dateFormatted": "2015-22",
        "configLaunched": "35"
      }, {
        "dateFormatted": "2015-23",
        "configLaunched": "41"
      }, {
        "dateFormatted": "2015-24",
        "configLaunched": "98"
      }, {
        "dateFormatted": "2015-25",
        "configLaunched": "90"
      }, {
        "dateFormatted": "2015-26",
        "configLaunched": "41"
      }, {
        "dateFormatted": "2015-27",
        "configLaunched": "65"
      }, {
        "dateFormatted": "2015-28",
        "configLaunched": "59"
      }, {
        "dateFormatted": "2015-29",
        "configLaunched": "0"
      }],
    "month": [{
        "dateFormatted": "2014-07-01",
        "configLaunched": "0"
      }, {
        "dateFormatted": "2014-08-01",
        "configLaunched": "0"
      }, {
        "dateFormatted": "2014-09-01",
        "configLaunched": "0"
      }, {
        "dateFormatted": "2014-10-01",
        "configLaunched": "0"
      }, {
        "dateFormatted": "2014-11-01",
        "configLaunched": "0"
      }, {
        "dateFormatted": "2014-12-01",
        "configLaunched": "12"
      }, {
        "dateFormatted": "2015-01-01",
        "configLaunched": "150"
      }, {
        "dateFormatted": "2015-02-01",
        "configLaunched": "15"
      }, {
        "dateFormatted": "2015-03-01",
        "configLaunched": "161"
      }, {
        "dateFormatted": "2015-04-01",
        "configLaunched": "338"
      }, {
        "dateFormatted": "2015-05-01",
        "configLaunched": "139"
      }, {
        "dateFormatted": "2015-06-01",
        "configLaunched": "288"
      }, {
        "dateFormatted": "2015-07-01",
        "configLaunched": "106"
      }]
  }
}