[
  {
    "projName": "ECO_DIAL_DESKTOP",
    "month": [
      {
        "date": "2016-01-01T00:00:00.000Z",
        "dateFormatted": "2016-01-01",
        "users": 1063
      },
      {
        "date": "2016-02-01T00:00:00.000Z",
        "dateFormatted": "2016-02-01",
        "users": 1328
      },
      {
        "date": "2016-03-01T00:00:00.000Z",
        "dateFormatted": "2016-03-01",
        "users": 1365
      },
      {
        "date": "2016-04-01T00:00:00.000Z",
        "dateFormatted": "2016-04-01",
        "users": 465
      },
      {
        "date": "2016-05-01T00:00:00.000Z",
        "dateFormatted": "2016-05-01",
        "users": 0
      },
      {
        "date": "2016-06-01T00:00:00.000Z",
        "dateFormatted": "2016-06-01",
        "users": 0
      },
      {
        "date": "2016-07-01T00:00:00.000Z",
        "dateFormatted": "2016-07-01",
        "users": 0
      },
      {
        "date": "2016-08-01T00:00:00.000Z",
        "dateFormatted": "2016-08-01",
        "users": 0
      },
      {
        "date": "2016-09-01T00:00:00.000Z",
        "dateFormatted": "2016-09-01",
        "users": 0
      },
      {
        "date": "2016-10-01T00:00:00.000Z",
        "dateFormatted": "2016-10-01",
        "users": 0
      },
      {
        "date": "2016-11-01T00:00:00.000Z",
        "dateFormatted": "2016-11-01",
        "users": 0
      },
      {
        "date": "2016-12-01T00:00:00.000Z",
        "dateFormatted": "2016-12-01",
        "users": 0
      }
    ]
  },
  {
    "projName": "NOT_LISTED",
    "month": [
      {
        "date": "2016-01-01T00:00:00.000Z",
        "dateFormatted": "2016-01-01",
        "users": 1089
      },
      {
        "date": "2016-02-01T00:00:00.000Z",
        "dateFormatted": "2016-02-01",
        "users": 1353
      },
      {
        "date": "2016-03-01T00:00:00.000Z",
        "dateFormatted": "2016-03-01",
        "users": 1609
      },
      {
        "date": "2016-04-01T00:00:00.000Z",
        "dateFormatted": "2016-04-01",
        "users": 916
      },
      {
        "date": "2016-05-01T00:00:00.000Z",
        "dateFormatted": "2016-05-01",
        "users": 0
      },
      {
        "date": "2016-06-01T00:00:00.000Z",
        "dateFormatted": "2016-06-01",
        "users": 0
      },
      {
        "date": "2016-07-01T00:00:00.000Z",
        "dateFormatted": "2016-07-01",
        "users": 0
      },
      {
        "date": "2016-08-01T00:00:00.000Z",
        "dateFormatted": "2016-08-01",
        "users": 0
      },
      {
        "date": "2016-09-01T00:00:00.000Z",
        "dateFormatted": "2016-09-01",
        "users": 0
      },
      {
        "date": "2016-10-01T00:00:00.000Z",
        "dateFormatted": "2016-10-01",
        "users": 0
      },
      {
        "date": "2016-11-01T00:00:00.000Z",
        "dateFormatted": "2016-11-01",
        "users": 0
      },
      {
        "date": "2016-12-01T00:00:00.000Z",
        "dateFormatted": "2016-12-01",
        "users": 0
      }
    ]
  },
  {
    "projName": "CBT",
    "month": [
      {
        "date": "2016-01-01T00:00:00.000Z",
        "dateFormatted": "2016-01-01",
        "users": 556
      },
      {
        "date": "2016-02-01T00:00:00.000Z",
        "dateFormatted": "2016-02-01",
        "users": 505
      },
      {
        "date": "2016-03-01T00:00:00.000Z",
        "dateFormatted": "2016-03-01",
        "users": 711
      },
      {
        "date": "2016-04-01T00:00:00.000Z",
        "dateFormatted": "2016-04-01",
        "users": 233
      },
      {
        "date": "2016-05-01T00:00:00.000Z",
        "dateFormatted": "2016-05-01",
        "users": 0
      },
      {
        "date": "2016-06-01T00:00:00.000Z",
        "dateFormatted": "2016-06-01",
        "users": 0
      },
      {
        "date": "2016-07-01T00:00:00.000Z",
        "dateFormatted": "2016-07-01",
        "users": 0
      },
      {
        "date": "2016-08-01T00:00:00.000Z",
        "dateFormatted": "2016-08-01",
        "users": 0
      },
      {
        "date": "2016-09-01T00:00:00.000Z",
        "dateFormatted": "2016-09-01",
        "users": 0
      },
      {
        "date": "2016-10-01T00:00:00.000Z",
        "dateFormatted": "2016-10-01",
        "users": 0
      },
      {
        "date": "2016-11-01T00:00:00.000Z",
        "dateFormatted": "2016-11-01",
        "users": 0
      },
      {
        "date": "2016-12-01T00:00:00.000Z",
        "dateFormatted": "2016-12-01",
        "users": 0
      }
    ]
  },
  {
    "projName": "QUICK_QUOTATION_630_SPAIN",
    "month": [
      {
        "date": "2016-01-01T00:00:00.000Z",
        "dateFormatted": "2016-01-01",
        "users": 79
      },
      {
        "date": "2016-02-01T00:00:00.000Z",
        "dateFormatted": "2016-02-01",
        "users": 99
      },
      {
        "date": "2016-03-01T00:00:00.000Z",
        "dateFormatted": "2016-03-01",
        "users": 86
      },
      {
        "date": "2016-04-01T00:00:00.000Z",
        "dateFormatted": "2016-04-01",
        "users": 29
      },
      {
        "date": "2016-05-01T00:00:00.000Z",
        "dateFormatted": "2016-05-01",
        "users": 0
      },
      {
        "date": "2016-06-01T00:00:00.000Z",
        "dateFormatted": "2016-06-01",
        "users": 0
      },
      {
        "date": "2016-07-01T00:00:00.000Z",
        "dateFormatted": "2016-07-01",
        "users": 0
      },
      {
        "date": "2016-08-01T00:00:00.000Z",
        "dateFormatted": "2016-08-01",
        "users": 0
      },
      {
        "date": "2016-09-01T00:00:00.000Z",
        "dateFormatted": "2016-09-01",
        "users": 0
      },
      {
        "date": "2016-10-01T00:00:00.000Z",
        "dateFormatted": "2016-10-01",
        "users": 0
      },
      {
        "date": "2016-11-01T00:00:00.000Z",
        "dateFormatted": "2016-11-01",
        "users": 0
      },
      {
        "date": "2016-12-01T00:00:00.000Z",
        "dateFormatted": "2016-12-01",
        "users": 0
      }
    ]
  },
  {
    "projName": "ECO_DIAL_AUTOCAD_PLUGIN",
    "month": [
      {
        "date": "2016-01-01T00:00:00.000Z",
        "dateFormatted": "2016-01-01",
        "users": 37
      },
      {
        "date": "2016-02-01T00:00:00.000Z",
        "dateFormatted": "2016-02-01",
        "users": 28
      },
      {
        "date": "2016-03-01T00:00:00.000Z",
        "dateFormatted": "2016-03-01",
        "users": 17
      },
      {
        "date": "2016-04-01T00:00:00.000Z",
        "dateFormatted": "2016-04-01",
        "users": 2
      },
      {
        "date": "2016-05-01T00:00:00.000Z",
        "dateFormatted": "2016-05-01",
        "users": 0
      },
      {
        "date": "2016-06-01T00:00:00.000Z",
        "dateFormatted": "2016-06-01",
        "users": 0
      },
      {
        "date": "2016-07-01T00:00:00.000Z",
        "dateFormatted": "2016-07-01",
        "users": 0
      },
      {
        "date": "2016-08-01T00:00:00.000Z",
        "dateFormatted": "2016-08-01",
        "users": 0
      },
      {
        "date": "2016-09-01T00:00:00.000Z",
        "dateFormatted": "2016-09-01",
        "users": 0
      },
      {
        "date": "2016-10-01T00:00:00.000Z",
        "dateFormatted": "2016-10-01",
        "users": 0
      },
      {
        "date": "2016-11-01T00:00:00.000Z",
        "dateFormatted": "2016-11-01",
        "users": 0
      },
      {
        "date": "2016-12-01T00:00:00.000Z",
        "dateFormatted": "2016-12-01",
        "users": 0
      }
    ]
  },
  {
    "projName": "MY_PACT",
    "month": [
      {
        "date": "2016-01-01T00:00:00.000Z",
        "dateFormatted": "2016-01-01",
        "users": 102
      },
      {
        "date": "2016-02-01T00:00:00.000Z",
        "dateFormatted": "2016-02-01",
        "users": 146
      },
      {
        "date": "2016-03-01T00:00:00.000Z",
        "dateFormatted": "2016-03-01",
        "users": 160
      },
      {
        "date": "2016-04-01T00:00:00.000Z",
        "dateFormatted": "2016-04-01",
        "users": 54
      },
      {
        "date": "2016-05-01T00:00:00.000Z",
        "dateFormatted": "2016-05-01",
        "users": 0
      },
      {
        "date": "2016-06-01T00:00:00.000Z",
        "dateFormatted": "2016-06-01",
        "users": 0
      },
      {
        "date": "2016-07-01T00:00:00.000Z",
        "dateFormatted": "2016-07-01",
        "users": 0
      },
      {
        "date": "2016-08-01T00:00:00.000Z",
        "dateFormatted": "2016-08-01",
        "users": 0
      },
      {
        "date": "2016-09-01T00:00:00.000Z",
        "dateFormatted": "2016-09-01",
        "users": 0
      },
      {
        "date": "2016-10-01T00:00:00.000Z",
        "dateFormatted": "2016-10-01",
        "users": 0
      },
      {
        "date": "2016-11-01T00:00:00.000Z",
        "dateFormatted": "2016-11-01",
        "users": 0
      },
      {
        "date": "2016-12-01T00:00:00.000Z",
        "dateFormatted": "2016-12-01",
        "users": 0
      }
    ]
  },
  {
    "projName": "RAPSODY",
    "month": [
      {
        "date": "2016-01-01T00:00:00.000Z",
        "dateFormatted": "2016-01-01",
        "users": 29
      },
      {
        "date": "2016-02-01T00:00:00.000Z",
        "dateFormatted": "2016-02-01",
        "users": 47
      },
      {
        "date": "2016-03-01T00:00:00.000Z",
        "dateFormatted": "2016-03-01",
        "users": 57
      },
      {
        "date": "2016-04-01T00:00:00.000Z",
        "dateFormatted": "2016-04-01",
        "users": 9
      },
      {
        "date": "2016-05-01T00:00:00.000Z",
        "dateFormatted": "2016-05-01",
        "users": 0
      },
      {
        "date": "2016-06-01T00:00:00.000Z",
        "dateFormatted": "2016-06-01",
        "users": 0
      },
      {
        "date": "2016-07-01T00:00:00.000Z",
        "dateFormatted": "2016-07-01",
        "users": 0
      },
      {
        "date": "2016-08-01T00:00:00.000Z",
        "dateFormatted": "2016-08-01",
        "users": 0
      },
      {
        "date": "2016-09-01T00:00:00.000Z",
        "dateFormatted": "2016-09-01",
        "users": 0
      },
      {
        "date": "2016-10-01T00:00:00.000Z",
        "dateFormatted": "2016-10-01",
        "users": 0
      },
      {
        "date": "2016-11-01T00:00:00.000Z",
        "dateFormatted": "2016-11-01",
        "users": 0
      },
      {
        "date": "2016-12-01T00:00:00.000Z",
        "dateFormatted": "2016-12-01",
        "users": 0
      }
    ]
  },
  {
    "projName": "SMART_SELECTORS",
    "month": [
      {
        "date": "2016-01-01T00:00:00.000Z",
        "dateFormatted": "2016-01-01",
        "users": 48
      },
      {
        "date": "2016-02-01T00:00:00.000Z",
        "dateFormatted": "2016-02-01",
        "users": 55
      },
      {
        "date": "2016-03-01T00:00:00.000Z",
        "dateFormatted": "2016-03-01",
        "users": 34
      },
      {
        "date": "2016-04-01T00:00:00.000Z",
        "dateFormatted": "2016-04-01",
        "users": 6
      },
      {
        "date": "2016-05-01T00:00:00.000Z",
        "dateFormatted": "2016-05-01",
        "users": 0
      },
      {
        "date": "2016-06-01T00:00:00.000Z",
        "dateFormatted": "2016-06-01",
        "users": 0
      },
      {
        "date": "2016-07-01T00:00:00.000Z",
        "dateFormatted": "2016-07-01",
        "users": 0
      },
      {
        "date": "2016-08-01T00:00:00.000Z",
        "dateFormatted": "2016-08-01",
        "users": 0
      },
      {
        "date": "2016-09-01T00:00:00.000Z",
        "dateFormatted": "2016-09-01",
        "users": 0
      },
      {
        "date": "2016-10-01T00:00:00.000Z",
        "dateFormatted": "2016-10-01",
        "users": 0
      },
      {
        "date": "2016-11-01T00:00:00.000Z",
        "dateFormatted": "2016-11-01",
        "users": 0
      },
      {
        "date": "2016-12-01T00:00:00.000Z",
        "dateFormatted": "2016-12-01",
        "users": 0
      }
    ]
  },
  {
    "projName": "QUICK_QUOTATION_630_RUSSIA",
    "month": [
      {
        "date": "2016-01-01T00:00:00.000Z",
        "dateFormatted": "2016-01-01",
        "users": 34
      },
      {
        "date": "2016-02-01T00:00:00.000Z",
        "dateFormatted": "2016-02-01",
        "users": 52
      },
      {
        "date": "2016-03-01T00:00:00.000Z",
        "dateFormatted": "2016-03-01",
        "users": 65
      },
      {
        "date": "2016-04-01T00:00:00.000Z",
        "dateFormatted": "2016-04-01",
        "users": 12
      },
      {
        "date": "2016-05-01T00:00:00.000Z",
        "dateFormatted": "2016-05-01",
        "users": 0
      },
      {
        "date": "2016-06-01T00:00:00.000Z",
        "dateFormatted": "2016-06-01",
        "users": 0
      },
      {
        "date": "2016-07-01T00:00:00.000Z",
        "dateFormatted": "2016-07-01",
        "users": 0
      },
      {
        "date": "2016-08-01T00:00:00.000Z",
        "dateFormatted": "2016-08-01",
        "users": 0
      },
      {
        "date": "2016-09-01T00:00:00.000Z",
        "dateFormatted": "2016-09-01",
        "users": 0
      },
      {
        "date": "2016-10-01T00:00:00.000Z",
        "dateFormatted": "2016-10-01",
        "users": 0
      },
      {
        "date": "2016-11-01T00:00:00.000Z",
        "dateFormatted": "2016-11-01",
        "users": 0
      },
      {
        "date": "2016-12-01T00:00:00.000Z",
        "dateFormatted": "2016-12-01",
        "users": 0
      }
    ]
  },
  {
    "projName": "ECOREAL_630",
    "month": [
      {
        "date": "2016-01-01T00:00:00.000Z",
        "dateFormatted": "2016-01-01",
        "users": 14
      },
      {
        "date": "2016-02-01T00:00:00.000Z",
        "dateFormatted": "2016-02-01",
        "users": 16
      },
      {
        "date": "2016-03-01T00:00:00.000Z",
        "dateFormatted": "2016-03-01",
        "users": 59
      },
      {
        "date": "2016-04-01T00:00:00.000Z",
        "dateFormatted": "2016-04-01",
        "users": 70
      },
      {
        "date": "2016-05-01T00:00:00.000Z",
        "dateFormatted": "2016-05-01",
        "users": 0
      },
      {
        "date": "2016-06-01T00:00:00.000Z",
        "dateFormatted": "2016-06-01",
        "users": 0
      },
      {
        "date": "2016-07-01T00:00:00.000Z",
        "dateFormatted": "2016-07-01",
        "users": 0
      },
      {
        "date": "2016-08-01T00:00:00.000Z",
        "dateFormatted": "2016-08-01",
        "users": 0
      },
      {
        "date": "2016-09-01T00:00:00.000Z",
        "dateFormatted": "2016-09-01",
        "users": 0
      },
      {
        "date": "2016-10-01T00:00:00.000Z",
        "dateFormatted": "2016-10-01",
        "users": 0
      },
      {
        "date": "2016-11-01T00:00:00.000Z",
        "dateFormatted": "2016-11-01",
        "users": 0
      },
      {
        "date": "2016-12-01T00:00:00.000Z",
        "dateFormatted": "2016-12-01",
        "users": 0
      }
    ]
  },
  {
    "projName": "BLM",
    "month": [
      {
        "date": "2016-01-01T00:00:00.000Z",
        "dateFormatted": "2016-01-01",
        "users": 1
      },
      {
        "date": "2016-02-01T00:00:00.000Z",
        "dateFormatted": "2016-02-01",
        "users": 1
      },
      {
        "date": "2016-03-01T00:00:00.000Z",
        "dateFormatted": "2016-03-01",
        "users": 0
      },
      {
        "date": "2016-04-01T00:00:00.000Z",
        "dateFormatted": "2016-04-01",
        "users": 0
      },
      {
        "date": "2016-05-01T00:00:00.000Z",
        "dateFormatted": "2016-05-01",
        "users": 0
      },
      {
        "date": "2016-06-01T00:00:00.000Z",
        "dateFormatted": "2016-06-01",
        "users": 0
      },
      {
        "date": "2016-07-01T00:00:00.000Z",
        "dateFormatted": "2016-07-01",
        "users": 0
      },
      {
        "date": "2016-08-01T00:00:00.000Z",
        "dateFormatted": "2016-08-01",
        "users": 0
      },
      {
        "date": "2016-09-01T00:00:00.000Z",
        "dateFormatted": "2016-09-01",
        "users": 0
      },
      {
        "date": "2016-10-01T00:00:00.000Z",
        "dateFormatted": "2016-10-01",
        "users": 0
      },
      {
        "date": "2016-11-01T00:00:00.000Z",
        "dateFormatted": "2016-11-01",
        "users": 0
      },
      {
        "date": "2016-12-01T00:00:00.000Z",
        "dateFormatted": "2016-12-01",
        "users": 0
      }
    ]
  },
  {
    "projName": "BERRI_SOFT",
    "month": [
      {
        "date": "2016-01-01T00:00:00.000Z",
        "dateFormatted": "2016-01-01",
        "users": 0
      },
      {
        "date": "2016-02-01T00:00:00.000Z",
        "dateFormatted": "2016-02-01",
        "users": 3
      },
      {
        "date": "2016-03-01T00:00:00.000Z",
        "dateFormatted": "2016-03-01",
        "users": 1
      },
      {
        "date": "2016-04-01T00:00:00.000Z",
        "dateFormatted": "2016-04-01",
        "users": 0
      },
      {
        "date": "2016-05-01T00:00:00.000Z",
        "dateFormatted": "2016-05-01",
        "users": 0
      },
      {
        "date": "2016-06-01T00:00:00.000Z",
        "dateFormatted": "2016-06-01",
        "users": 0
      },
      {
        "date": "2016-07-01T00:00:00.000Z",
        "dateFormatted": "2016-07-01",
        "users": 0
      },
      {
        "date": "2016-08-01T00:00:00.000Z",
        "dateFormatted": "2016-08-01",
        "users": 0
      },
      {
        "date": "2016-09-01T00:00:00.000Z",
        "dateFormatted": "2016-09-01",
        "users": 0
      },
      {
        "date": "2016-10-01T00:00:00.000Z",
        "dateFormatted": "2016-10-01",
        "users": 0
      },
      {
        "date": "2016-11-01T00:00:00.000Z",
        "dateFormatted": "2016-11-01",
        "users": 0
      },
      {
        "date": "2016-12-01T00:00:00.000Z",
        "dateFormatted": "2016-12-01",
        "users": 0
      }
    ]
  },
  {
    "projName": "CAD_LIBRARY",
    "month": [
      {
        "date": "2016-01-01T00:00:00.000Z",
        "dateFormatted": "2016-01-01",
        "users": 0
      },
      {
        "date": "2016-02-01T00:00:00.000Z",
        "dateFormatted": "2016-02-01",
        "users": 1
      },
      {
        "date": "2016-03-01T00:00:00.000Z",
        "dateFormatted": "2016-03-01",
        "users": 2
      },
      {
        "date": "2016-04-01T00:00:00.000Z",
        "dateFormatted": "2016-04-01",
        "users": 0
      },
      {
        "date": "2016-05-01T00:00:00.000Z",
        "dateFormatted": "2016-05-01",
        "users": 0
      },
      {
        "date": "2016-06-01T00:00:00.000Z",
        "dateFormatted": "2016-06-01",
        "users": 0
      },
      {
        "date": "2016-07-01T00:00:00.000Z",
        "dateFormatted": "2016-07-01",
        "users": 0
      },
      {
        "date": "2016-08-01T00:00:00.000Z",
        "dateFormatted": "2016-08-01",
        "users": 0
      },
      {
        "date": "2016-09-01T00:00:00.000Z",
        "dateFormatted": "2016-09-01",
        "users": 0
      },
      {
        "date": "2016-10-01T00:00:00.000Z",
        "dateFormatted": "2016-10-01",
        "users": 0
      },
      {
        "date": "2016-11-01T00:00:00.000Z",
        "dateFormatted": "2016-11-01",
        "users": 0
      },
      {
        "date": "2016-12-01T00:00:00.000Z",
        "dateFormatted": "2016-12-01",
        "users": 0
      }
    ]
  }
]